{
    "name": "<%= appName %>",
    "description": "<%= appDescription %>",
    "version": "<%= appVersion %>",
    "author": "<%= appAuthor %> <<%= appAuthorEmail %>>",
    "dependencies": {},
    "devDependencies": {
        "grunt": "*",
        "grunt-autoprefixer": "*",
        "grunt-bump": "*",
        "grunt-contrib-clean": "*",
        "grunt-contrib-concat": "*",
        "grunt-contrib-csslint": "*",
        "grunt-contrib-cssmin": "*",
        "grunt-contrib-htmlmin": "*",
        "grunt-contrib-imagemin": "*",
        "grunt-contrib-jshint": "*",
        "grunt-contrib-less": "*",
        "grunt-contrib-uglify": "*",
        "grunt-contrib-watch": "*",
        "load-grunt-tasks": "*"
    }
}